3 Text Analysis | Neeley BIS Data Science Competition Summer 2020
…
Technical Note: R is a functional(-like?) programming language (versus imperative programming, which is typically taught in school). A programming principle consistent with functional programming is immutability. Some would consider the code above poor practice as I am using the same variable on both sides of the equation versus creating a new variable, vacation_tweets_tt.

Our analysis will be performed by date, that is, the field common to gold prices, stock prices, and social data is date. The date fields in the social data include time stamps - too granular of data for our purposes. We first convert the created_at from a date/timestamp to date field via the lubridate(Spinu, Grolemund, and Wickham 2020) package function as_date(). We then call the dplyr command group_by() to aggregate the rows by date, then count() the number of occurrences of each word by date.

Note the %>% - this is a piping syntax where output of the previous command becomes input for the next command.

library(lubridate) # for the function as_date

vacation_tweets_tt$created_at <- as_date(vacation_tweets_tt$created_at) # By date, drop time stamp so we can generate a meaningful count by time
tweet_word_count_by_date <- vacation_tweets_tt %>% group_by(created_at) %>% count(word, sort = TRUE) 
ungroup(tweet_word_count_by_date)

## # A tibble: 1,243 x 3
##    created_at word          n
##    <date>     <chr>     <int>
##  1 2020-06-18 caribbean    25
##  2 2020-06-18 https        23
##  3 2020-06-18 t.co         23
##  4 2020-06-18 vacation     21
##  5 2020-06-11 caribbean    19
##  6 2020-06-11 vacation     18
##  7 2020-06-15 caribbean    18
##  8 2020-06-15 vacation     15
##  9 2020-06-11 https        14
## 10 2020-06-11 t.co         14
## # ... with 1,233 more rows

vacation_reddit_tt$created_at <- as_date(vacation_reddit_tt$created_at) 
reddit_word_count_by_date <- vacation_reddit_tt %>% group_by(created_at) %>% count(word, sort = TRUE) 
ungroup(reddit_word_count_by_date)

## # A tibble: 1,243 x 3
##    created_at word          n
##    <date>     <chr>     <int>
##  1 2020-06-18 caribbean    25
##  2 2020-06-18 https        23
##  3 2020-06-18 t.co         23
##  4 2020-06-18 vacation     21
##  5 2020-06-11 caribbean    19
##  6 2020-06-11 vacation     18
##  7 2020-06-15 caribbean    18
##  8 2020-06-15 vacation     15
##  9 2020-06-11 https        14
## 10 2020-06-11 t.co         14
## # ... with 1,233 more rows
…
